/home/alnao/git/south_african_mobile_numbers_api/SouthAfricanMobileNumbers/src/main/java/it/alnao/southAfricanMobileNumbers/entities/SouthAfricanMobileNumbersEntity.java
/home/alnao/git/south_african_mobile_numbers_api/SouthAfricanMobileNumbers/src/main/java/it/alnao/southAfricanMobileNumbers/service/SouthAfricanMobileNumbersService.java
/home/alnao/git/south_african_mobile_numbers_api/SouthAfricanMobileNumbers/src/main/java/it/alnao/southAfricanMobileNumbers/service/SouthAfricanMobileNumbersIService.java
/home/alnao/git/south_african_mobile_numbers_api/SouthAfricanMobileNumbers/src/main/java/it/alnao/southAfricanMobileNumbers/controller/SouthAfricanMobileNumbersController.java
/home/alnao/git/south_african_mobile_numbers_api/SouthAfricanMobileNumbers/src/main/java/it/alnao/southAfricanMobileNumbers/SouthAfricanMobileNumbersApplication.java
/home/alnao/git/south_african_mobile_numbers_api/SouthAfricanMobileNumbers/src/main/java/it/alnao/southAfricanMobileNumbers/repository/SouthAfricanMobileNumbersRepository.java
